{
  "items": [
    {
      "id": 68,
      "title": "Board UX: add assignee/project filter dropdown quick-clear chips in board header",
      "description": "",
      "state": "next",
      "projectId": 2,
      "assigneeId": 2,
      "boardColumnId": 2,
      "priority": 3,
      "createdAt": "2026-03-05T10:03:04Z",
      "updatedAt": "2026-03-05T10:03:04Z"
    },
    {
      "id": 67,
      "title": "Board UX: add direct column rename/delete controls on board headers",
      "description": "",
      "state": "done",
      "projectId": 2,
      "assigneeId": 2,
      "boardColumnId": 5,
      "priority": 2,
      "createdAt": "2026-03-05T10:03:04Z",
      "updatedAt": "2026-03-05T10:37:59Z"
    },
    {
      "id": 66,
      "title": "Board UX: keyboard shortcut hints persist after column reorder submit",
      "description": "",
      "state": "done",
      "projectId": 2,
      "assigneeId": 2,
      "boardColumnId": 5,
      "priority": 2,
      "createdAt": "2026-03-05T10:03:04Z",
      "updatedAt": "2026-03-05T10:23:21Z"
    },
    {
      "id": 65,
      "title": "Board UX: keyboard-accessible column reordering controls with aria-live feedback",
      "description": "",
      "state": "done",
      "projectId": 2,
      "assigneeId": 2,
      "boardColumnId": 5,
      "priority": 3,
      "createdAt": "2026-03-05T07:53:39.154986Z",
      "updatedAt": "2026-03-05T10:03:04Z"
    },
    {
      "id": 64,
      "title": "Board UX: add optimistic rollback messaging for column move failures",
      "description": "",
      "state": "done",
      "projectId": 2,
      "assigneeId": 2,
      "boardColumnId": 5,
      "priority": 2,
      "createdAt": "2026-03-05T07:53:39.154986Z",
      "updatedAt": "2026-03-05T08:33:30Z"
    },
    {
      "id": 63,
      "title": "Board UX: board-card quick controls for assignee/project/priority/due",
      "description": "Autonomous loop follow-up for board-only operability",
      "state": "done",
      "projectId": 2,
      "assigneeId": 2,
      "boardColumnId": 5,
      "priority": 2,
      "createdAt": "2026-03-05T06:16:37.559698Z",
      "updatedAt": "2026-03-05T08:27:50Z"
    },
    {
      "id": 62,
      "title": "Board UX: drag-drop column moves with optimistic persistence + rollback",
      "description": "Autonomous loop follow-up for board-only operability",
      "state": "done",
      "projectId": 2,
      "assigneeId": 2,
      "boardColumnId": 5,
      "priority": 1,
      "createdAt": "2026-03-05T06:16:37.559698Z",
      "updatedAt": "2026-03-05T07:53:31.475243Z"
    },
    {
      "id": 61,
      "title": "Board UX: inline task edit/delete controls directly on board cards",
      "description": "Autonomous loop follow-up for board-only operability",
      "state": "done",
      "projectId": 2,
      "assigneeId": 2,
      "boardColumnId": 5,
      "priority": 1,
      "createdAt": "2026-03-05T06:16:37.559698Z",
      "updatedAt": "2026-03-05T06:26:05Z"
    },
    {
      "id": 60,
      "title": "Board UX: persist /board filter presets as shareable URL templates",
      "description": "Save/load reusable filter combinations directly from board workspace.",
      "state": "done",
      "projectId": 2,
      "assigneeId": 2,
      "boardColumnId": 5,
      "priority": 1,
      "createdAt": "2026-03-05T03:17:25Z",
      "updatedAt": "2026-03-05T06:16:20.908341Z"
    },
    {
      "id": 59,
      "title": "Board UX: make active filter badges removable inline from /board",
      "description": "Single-click clear controls on each active filter badge to reduce route-hopping.",
      "state": "done",
      "projectId": 2,
      "assigneeId": 2,
      "boardColumnId": 5,
      "priority": 2,
      "createdAt": "2026-03-05T03:17:25Z",
      "updatedAt": "2026-03-05T04:45:56.708895Z"
    },
    {
      "id": 58,
      "title": "Unblock #52: capture live worker-outcome artifact and set timeout threshold",
      "description": "Run one live worker-outcome capture and document threshold decision for #34/#52.",
      "state": "done",
      "projectId": 2,
      "assigneeId": 2,
      "boardColumnId": 2,
      "priority": 1,
      "createdAt": "2026-03-04T22:46:46Z",
      "updatedAt": "2026-03-05T01:45:55Z"
    },
    {
      "id": 57,
      "title": "Board UX: show active filter summary badges above lanes",
      "description": "Display compact chips for active board filters to avoid hidden constraints during triage.",
      "state": "done",
      "projectId": 2,
      "assigneeId": 2,
      "boardColumnId": 5,
      "priority": 2,
      "createdAt": "2026-03-04T22:46:46Z",
      "updatedAt": "2026-03-05T03:16:11Z"
    },
    {
      "id": 56,
      "title": "Board UX: persist board filter presets as URL templates",
      "description": "Save/restore common board filter sets (assignee/project/state/priority/due-window/search).",
      "state": "done",
      "projectId": 2,
      "assigneeId": 2,
      "boardColumnId": 5,
      "priority": 1,
      "createdAt": "2026-03-04T22:46:46Z",
      "updatedAt": "2026-03-05T00:15:29Z"
    },
    {
      "id": 55,
      "title": "Benchmark UX: add optional endpoint filter for focused load checks",
      "description": "Allow benchmark_task_board.py to run a subset of endpoints via CLI so operators can isolate regressions quickly.",
      "state": "done",
      "projectId": 2,
      "assigneeId": 2,
      "boardColumnId": 5,
      "priority": 2,
      "createdAt": "2026-03-04T12:46:57Z",
      "updatedAt": "2026-03-04T12:48:04Z"
    },
    {
      "id": 54,
      "title": "Board lanes: sort Next column cards by priority then due date",
      "description": "Keep Next lane deterministic for autonomous planning and operator triage.",
      "state": "done",
      "projectId": 2,
      "assigneeId": 2,
      "boardColumnId": 5,
      "priority": 1,
      "createdAt": "2026-03-04T11:17:07Z",
      "updatedAt": "2026-03-04T11:17:50Z"
    },
    {
      "id": 53,
      "title": "Unblock #52: capture one worker outcome sample via non-subagent runner or fixture import",
      "description": "Need one concrete worker outcome dataset (completed vs timed_out) to set timeout threshold for #34/#52 while autonomous loop remains subagent-disabled.",
      "state": "done",
      "projectId": 2,
      "assigneeId": 2,
      "boardColumnId": 5,
      "priority": 1,
      "createdAt": "2026-03-04T04:52:26Z",
      "updatedAt": "2026-03-04T06:02:40Z"
    },
    {
      "id": 52,
      "title": "Unblock #34: run worker outcome sweep and set timeout threshold",
      "description": "Execute one real fanout cycle, capture completion/timeout ratio, and document unblock threshold for #34.",
      "state": "done",
      "projectId": 2,
      "assigneeId": 2,
      "boardColumnId": 5,
      "priority": 1,
      "createdAt": "2026-03-04T04:27:36Z",
      "updatedAt": "2026-03-05T03:16:02Z"
    },
    {
      "id": 51,
      "title": "Benchmark: define TODO App performance SLA (p50/p95 load, interaction latency, API throughput)",
      "description": "Produce measurable SLA targets and acceptance checks for board/task workflows.",
      "state": "done",
      "projectId": 2,
      "assigneeId": 2,
      "boardColumnId": 5,
      "priority": 3,
      "createdAt": "2026-03-04T04:27:36Z",
      "updatedAt": "2026-03-04T09:16:00Z"
    },
    {
      "id": 50,
      "title": "Reliability: add regression coverage for nav active-state styling on non-board routes",
      "description": "Assert active-route highlighting across /tasks,/projects,/people,/settings to prevent navigation orientation regressions.",
      "state": "done",
      "projectId": 2,
      "assigneeId": 2,
      "boardColumnId": 2,
      "priority": 3,
      "createdAt": "2026-03-04T04:27:30Z",
      "updatedAt": "2026-03-04T07:38:44Z"
    },
    {
      "id": 49,
      "title": "Mutation smoke task",
      "description": "",
      "state": "done",
      "projectId": 8,
      "boardColumnId": 12,
      "priority": 3,
      "createdAt": "2026-03-03T20:15:20Z",
      "updatedAt": "2026-03-03T20:15:20Z"
    }
  ],
  "page": 1,
  "pageSize": 20,
  "totalItems": 68,
  "totalPages": 4
}